com\marcus\filetest\parsers\ParseLine.class
com\marcus\filetest\parsers\ParseTxtFixedColumns.class
com\marcus\filetest\parsers\ParseCsvLine.class
com\marcus\filetest\parsers\ParselineFactory.class
com\marcus\filetest\defauts\FixedtextSetup.class
FileParsing\HtmlProducer.class
com\marcus\filetest\parsers\FileAsColumns.class
com\marcus\filetest\beans\AccountList.class
com\marcus\filetest\beans\Account.class
