C:\Users\DBKMBL\FileParsing\src\test\java\FileParsing\ConvertFilesToHtmlTest.java
C:\Users\DBKMBL\FileParsing\src\test\java\com\marcus\filetest\parsers\CsvParseLineTest.java
C:\Users\DBKMBL\FileParsing\src\test\java\com\marcus\filetest\parsers\CsvExtractColumnsTest.java
C:\Users\DBKMBL\FileParsing\src\test\java\com\marcus\filetest\parsers\ConvertCSVToColumnsTest.java
C:\Users\DBKMBL\FileParsing\src\test\java\com\marcus\filetest\defaults\FixedtextColumnsRetrievalTest.java
C:\Users\DBKMBL\FileParsing\src\test\java\com\marcus\filetest\parsers\FixedTextlineParseTest.java
C:\Users\DBKMBL\FileParsing\src\test\java\com\marcus\filetest\parsers\ConvertFixedTextToColumnsTest.java
